<?xml version="1.0" encoding="utf-8"?>
<!-- Generator: Adobe Illustrator 22.1.0, SVG Export Plug-In . SVG Version: 6.00 Build 0)  -->
<svg version="1.1" id="圖層_1" xmlns="http://www.w3.org/2000/svg" xmlns:xlink="http://www.w3.org/1999/xlink" x="0px" y="0px"
	 viewBox="0 0 86 24" style="enable-background:new 0 0 86 24;" xml:space="preserve">
<style type="text/css">
	.st0{fill:url(#SVGID_1_);}
	.st1{fill:#003D00;}
	.st2{fill:url(#SVGID_2_);}
	.st3{fill:url(#SVGID_3_);}
	.st4{fill:url(#SVGID_4_);}
</style>
<g>
	<g>
		<linearGradient id="SVGID_1_" gradientUnits="userSpaceOnUse" x1="11.4487" y1="21.7631" x2="11.4487" y2="1.9936">
			<stop  offset="0" style="stop-color:#E9DA81"/>
			<stop  offset="0.1414" style="stop-color:#E8D67D"/>
			<stop  offset="0.2714" style="stop-color:#E6CB73"/>
			<stop  offset="0.3965" style="stop-color:#E3B960"/>
			<stop  offset="0.4462" style="stop-color:#E1AF57"/>
			<stop  offset="0.4945" style="stop-color:#E5BD6B"/>
			<stop  offset="0.5898" style="stop-color:#ECD58D"/>
			<stop  offset="0.6874" style="stop-color:#F1E7A7"/>
			<stop  offset="0.7869" style="stop-color:#F5F5BA"/>
			<stop  offset="0.8895" style="stop-color:#F7FCC5"/>
			<stop  offset="1" style="stop-color:#F8FFC9"/>
		</linearGradient>
		<path class="st0" d="M3.5,11.6l1.4-1.3l2.5,2.2l-0.8,0.8v3C7.5,14.7,8,13.1,8,11.3V6.2H6.6L6.4,5.4L5.2,6.6
			C4.5,5.4,3.7,4.3,2.9,3.6l1.4-1.3C5.6,3,6.6,3.7,7.4,4.4L7,4.7h1.7V2.1l2.9,0.4v2.2H12L12.9,4l1,0.9C14.2,4,14.4,3,14.5,2l2.9,0.7
			c-0.1,0.6-0.3,1.1-0.6,1.7h2l1-0.8L21.4,5l-0.8,0.8H16c-0.3,0.5-0.6,0.9-1,1.4h2.3l1.4-1.1L21.3,8l-1.4,0.7l-1.8,1.6l0.4,0.1v1.5
			h0.4l0.9-0.7l1.5,1.3l-0.7,0.8h-2.1v3.3c0,1.1-0.6,1.7-1.8,1.7h-1.3c0-0.9-0.5-1.4-1.4-1.4l0.1-1.3c0.4,0.1,0.8,0.2,1.1,0.2
			c0.4,0,0.6-0.2,0.6-0.6v-2h-2v1.1c0,2.5-0.8,3.8-2.3,3.8h-1.1c0-1.1-0.4-1.7-1.2-1.9l0.1-0.6c-0.4,0.6-0.9,1.2-1.5,1.7l-1-0.8
			c0.2,1.3,1.4,1.9,3.4,1.9h11.4l-0.9,2.7H10.1c-2.1,0-3.8-0.9-4.9-2.8c-0.3,0.8-0.9,1.9-1.9,3.4l-1.8-2.3c1.4-1.5,2.2-2.5,2.2-3
			v-3.3H2l-0.4-1.6H3.5z M2.9,5.9c1.4,0.8,2.5,1.6,3.3,2.4l-2.3,2.3C3.2,9.2,2.4,8.1,1.5,7.2L2.9,5.9z M9.4,15.3
			c0.4,0,0.9,0.1,1.4,0.2c0.3,0,0.5-0.6,0.5-1.8V9.8h-0.7v1.1C10.6,12.6,10.2,14.1,9.4,15.3z M13.7,11.8h2V10l0.7,0.1l0.8-1.4h-2.6
			l-0.2-0.8c-0.1,0.2-0.3,0.3-0.4,0.4l-1-0.9c0.2-0.4,0.4-0.8,0.5-1.2h-2.9v2.2h0.4l1.1-0.9l2.3,1.8l-0.7,0.7V11.8z"/>
		<path class="st1" d="M14.5,2l2.9,0.7c-0.1,0.6-0.3,1.1-0.6,1.7h2l1-0.8L21.4,5l-0.8,0.8H16c-0.3,0.5-0.6,0.9-1,1.4h2.3l1.4-1.1
			L21.3,8l-1.4,0.7l-1.8,1.6l0.4,0.1v1.5h0.4l0.9-0.7l1.5,1.3l-0.7,0.8h-2.1v3.3c0,1.1-0.6,1.7-1.8,1.7h-1.3c0-0.9-0.5-1.4-1.4-1.4
			l0.1-1.3c0.4,0.1,0.8,0.2,1.1,0.2c0.4,0,0.6-0.2,0.6-0.6v-2h-2v1.1c0,2.5-0.8,3.8-2.3,3.8h-1.1c0-1.1-0.4-1.7-1.2-1.9l0.1-0.6
			c-0.4,0.6-0.9,1.2-1.5,1.7l-1-0.8c0.2,1.3,1.4,1.9,3.4,1.9h11.4l-0.9,2.7H10.1c-2.1,0-3.8-0.9-4.9-2.8c-0.3,0.8-0.9,1.9-1.9,3.4
			l-1.8-2.3c1.4-1.5,2.2-2.5,2.2-3v-3.3H2l-0.4-1.6h1.9l1.4-1.3l2.5,2.2l-0.8,0.8v3C7.5,14.7,8,13.1,8,11.3V6.2H6.6L6.4,5.4L5.2,6.6
			C4.5,5.4,3.7,4.3,2.9,3.6l1.4-1.3C5.6,3,6.6,3.7,7.4,4.4L7,4.7h1.7V2.1l2.9,0.4v2.2H12L12.9,4l1,0.9C14.2,4,14.4,3,14.5,2
			 M10.6,8.4h0.4l1.1-0.9l2.3,1.8l-0.7,0.7v2h2V10l0.7,0.1l0.8-1.4h-2.6l-0.2-0.8c-0.1,0.2-0.3,0.3-0.4,0.4l-1-0.9
			c0.2-0.4,0.4-0.8,0.5-1.2h-2.9V8.4 M10.8,15.5c0.3,0,0.5-0.6,0.5-1.8V9.8h-0.7v1.1c0,1.7-0.4,3.1-1.2,4.4
			C9.8,15.4,10.3,15.4,10.8,15.5 M2.9,5.9c1.4,0.8,2.5,1.6,3.3,2.4l-2.3,2.3C3.2,9.2,2.4,8.1,1.5,7.2L2.9,5.9 M21.4,18.5L21.4,18.5
			 M14.5,1c-0.2,0-0.4,0.1-0.6,0.2c-0.2,0.2-0.4,0.4-0.4,0.7c-0.1,0.4-0.1,0.8-0.2,1.2C13.2,3,13,3,12.9,3c-0.1,0-0.1,0-0.2,0V2.5
			c0-0.5-0.4-0.9-0.9-1L8.9,1.1c0,0-0.1,0-0.1,0c-0.2,0-0.5,0.1-0.7,0.2C7.9,1.6,7.8,1.8,7.8,2.1v1.3C7,2.7,6,2.1,4.7,1.4
			C4.6,1.3,4.4,1.3,4.3,1.3C4,1.3,3.8,1.4,3.6,1.5L2.2,2.8C2,3,1.9,3.3,1.9,3.5c0,0.3,0.1,0.5,0.3,0.7c0.2,0.2,0.4,0.4,0.6,0.6
			C2.6,4.9,2.3,5,2.2,5.2L0.8,6.5c-0.4,0.4-0.4,1,0,1.4c0.7,0.7,1.4,1.6,2,2.7H1.6c-0.3,0-0.6,0.1-0.8,0.4c-0.2,0.2-0.3,0.6-0.2,0.9
			L1,13.4c0.1,0.4,0.5,0.8,1,0.8h0.6v2.2c0,0.1-0.3,0.7-1.9,2.4c-0.3,0.4-0.4,0.9-0.1,1.3l1.8,2.3c0.2,0.2,0.5,0.4,0.8,0.4
			c0,0,0,0,0,0c0.3,0,0.6-0.2,0.8-0.4c0.5-0.8,0.9-1.4,1.3-2c1.2,1.3,2.8,1.9,4.7,1.9h10.4c0.4,0,0.8-0.3,1-0.7l0.8-2.7
			c0-0.1,0.1-0.2,0.1-0.4c0-0.6-0.4-1-1-1h0h-2c0.1-0.3,0.1-0.6,0.1-0.9v-2.3h1.1c0.3,0,0.6-0.1,0.7-0.3l0.7-0.8
			c0.4-0.4,0.3-1-0.1-1.4l-1.5-1.3c-0.2-0.2-0.4-0.3-0.7-0.3c0,0-0.1,0-0.1,0l0.7-0.6l1.3-0.6C22,8.7,22.3,8.4,22.3,8
			c0-0.4-0.1-0.7-0.4-0.9l-0.7-0.5c0.1,0,0.2-0.1,0.2-0.2l0.8-0.8c0.2-0.2,0.3-0.5,0.3-0.7c0-0.3-0.1-0.5-0.3-0.7l-1.6-1.5
			c-0.2-0.2-0.4-0.3-0.7-0.3c-0.2,0-0.5,0.1-0.6,0.2l-0.7,0.6h-0.2c0-0.2,0.1-0.4,0.1-0.5c0.1-0.5-0.2-1-0.8-1.1L14.8,1
			C14.7,1,14.6,1,14.5,1L14.5,1z M7,7.7c0,0-0.1-0.1-0.1-0.1C6.8,7.5,6.6,7.3,6.4,7.2c0.1,0,0.1,0,0.2,0H7V7.7L7,7.7z M6,9.9L6.9,9
			C7,9,7,8.9,7,8.9v1.9L6,9.9L6,9.9z M14.7,10.3L14.7,10.3l0,0.5h0V10.3L14.7,10.3z M14.7,14.3L14.7,14.3l0,0.5c0,0,0,0,0,0
			C14.7,14.7,14.7,14.5,14.7,14.3L14.7,14.3L14.7,14.3z M9,17.4C9,17.4,9,17.4,9,17.4C9,17.4,9,17.4,9,17.4C9,17.4,9,17.4,9,17.4
			L9,17.4z"/>
	</g>
	<g>
		<linearGradient id="SVGID_2_" gradientUnits="userSpaceOnUse" x1="32.5" y1="21.7836" x2="32.5" y2="2.1986">
			<stop  offset="0" style="stop-color:#E9DA81"/>
			<stop  offset="0.1414" style="stop-color:#E8D67D"/>
			<stop  offset="0.2714" style="stop-color:#E6CB73"/>
			<stop  offset="0.3965" style="stop-color:#E3B960"/>
			<stop  offset="0.4462" style="stop-color:#E1AF57"/>
			<stop  offset="0.4945" style="stop-color:#E5BD6B"/>
			<stop  offset="0.5898" style="stop-color:#ECD58D"/>
			<stop  offset="0.6874" style="stop-color:#F1E7A7"/>
			<stop  offset="0.7869" style="stop-color:#F5F5BA"/>
			<stop  offset="0.8895" style="stop-color:#F7FCC5"/>
			<stop  offset="1" style="stop-color:#F8FFC9"/>
		</linearGradient>
		<path class="st2" d="M40.3,6.4l1.9,1.3l-0.7,1l-3,0.6c0,1.1,0.1,2.2,0.2,3.2c0.4-1,0.8-2,1-3l2.5,1.1c-0.6,2.1-1.6,4.1-2.9,5.9
			c0.1,0.4,0.2,0.7,0.3,1c0.4,0.9,0.6,1.3,0.7,1.3c0.2-0.1,0.5-0.9,0.8-2.3l1,0.4c-0.2,0.7-0.3,1.2-0.3,1.6c0,0.4,0.1,0.8,0.4,1.1
			c-0.3,1.5-0.9,2.2-2,2.2s-2-1-2.9-3c-0.9,1-2,1.9-3.1,2.8l-1.1-1.1c0.2-0.2,0.4-0.4,0.6-0.6c-2.5,0.8-5.1,1.4-7.7,1.8L25.5,19
			c0.7,0,1.4,0,2.1-0.1c-0.3-0.5-0.6-1-0.9-1.3l0.6-0.4l-0.5,0.1v-4.8l2.8,0.3V13h2.4l0.7-0.7h-6.2l-0.3-1.3h6.8l0.4-0.5
			c-0.1,0-0.2,0-0.2,0h-4c-1,0-1.6-0.4-1.6-1.3V9.3l-1.3,0.2l-0.5-0.8v5.6c0,1.8-0.2,3.2-0.6,4.3c-0.4,1.1-0.9,2.2-1.6,3.1l-1-0.7
			c0.4-2.1,0.6-4.4,0.6-7v-10l2.7,0.4v0.8h1.8V2.2l3.1,0.4v0.7h1.9l1.1-1l1.8,1.6l-0.8,0.7h-3.9v0.8h2.5l1-0.8l1.5,1.2V2.3l2.7,0.3
			v5.1l1-0.2L40.3,6.4z M25.9,6.8v1.6l1.7-0.4V6.8H25.9z M28.8,18.9c0.5,0,1-0.1,1.5-0.1c0.3-0.6,0.5-1.4,0.8-2.2l0.8,0.2v-0.2h-2.3
			v0.4L28,17.1c0.4,0.2,1,0.6,1.6,1.1L28.8,18.9z M28.8,6.8l1.5,0.2v0.4l0.8-0.2l0.4-0.4H28.8z M29.5,15.3h2.3v-1h-2.3V15.3z
			 M32.6,18.4c0.7-0.1,1.4-0.2,2-0.3l0.2,0.6c0.7-0.8,1.2-1.6,1.8-2.4c-0.4-1.7-0.7-3.9-0.8-6.5L34.7,10l-0.6-1.5l1.6-0.3V6.6
			l-0.3,0.1L34,8.3l-0.9-0.4l-0.5,0.4l-2.3,0.4v0.2c0,0.2,0.1,0.3,0.2,0.3h1.9c0.2,0,0.2-0.1,0.2-0.2l0.2-0.8l1,0.2l0,0.3
			c0,0.4,0.2,0.7,0.6,1c-0.1,0.3-0.2,0.5-0.5,0.7l1.4,1.3l-0.7,0.7H33l2.2,1.6l-0.5,0.7v2l-2.3,0.2l1.2,0.2
			C33.3,17.6,33,18.1,32.6,18.4z M32.1,6.8L33,7.3l0.2-0.6H32.1z M40.2,2.9c0.7,0.9,1.2,1.8,1.6,2.9l-2.5,0.6
			c-0.1-1.2-0.3-2.2-0.7-3L40.2,2.9z"/>
		<path class="st1" d="M27.7,2.2l3.1,0.4v0.7h1.9l1.1-1l1.8,1.6l-0.8,0.7h-0.4h-3.4v0.8h2.5l1-0.8l1.5,1.2V2.3l2.7,0.3v5.1l1-0.2
			l0.8-1.1l1.9,1.3l-0.7,1l-3,0.6c0,1.1,0.1,2.2,0.2,3.2c0.4-1,0.8-2,1-3l2.5,1.1c-0.6,2.1-1.6,4.1-2.9,5.9c0.1,0.4,0.2,0.7,0.3,1
			c0.4,0.9,0.6,1.3,0.7,1.3c0.2-0.1,0.5-0.9,0.8-2.3l1,0.4c-0.2,0.7-0.3,1.2-0.3,1.6c0,0.4,0.1,0.8,0.4,1.1c-0.3,1.5-0.9,2.2-2,2.2
			s-2-1-2.9-3c-0.9,1-2,1.9-3.1,2.8l-1.1-1.1c0.2-0.2,0.4-0.4,0.6-0.6c-2.5,0.8-5.1,1.4-7.7,1.8L25.5,19c0.7,0,1.4,0,2.1-0.1
			c-0.3-0.5-0.6-1-0.9-1.3l0.6-0.4l-0.5,0.1v-4.8l2.8,0.3V13h2.4l0.7-0.7h-6.2l-0.3-1.3h6.8l0.4-0.5c-0.1,0-0.2,0-0.2,0h-4
			c-1,0-1.6-0.4-1.6-1.3V9.3l-1.3,0.2l-0.5-0.8v5.6c0,1.8-0.2,3.2-0.6,4.3c-0.4,1.1-0.9,2.2-1.6,3.1l-1-0.7c0.4-2.1,0.6-4.4,0.6-7
			v-10l2.7,0.4v0.8h1.8V2.2 M34,8.3l-0.9-0.4l-0.5,0.4l-2.3,0.4v0.2c0,0.2,0.1,0.3,0.2,0.3h1.9c0.2,0,0.2-0.1,0.2-0.2l0.2-0.8l1,0.2
			l0,0.3c0,0.4,0.2,0.7,0.6,1c-0.1,0.3-0.2,0.5-0.5,0.7l1.4,1.3l-0.7,0.7H33l2.2,1.6l-0.5,0.7v2l-2.3,0.2l1.2,0.2
			c-0.3,0.5-0.6,0.9-1,1.3c0.7-0.1,1.4-0.2,2-0.3l0.2,0.6c0.7-0.8,1.2-1.6,1.8-2.4c-0.4-1.7-0.7-3.9-0.8-6.5L34.7,10l-0.6-1.5
			l1.6-0.3V6.6l-0.3,0.1L34,8.3 M33.2,6.8h-1.1L33,7.3L33.2,6.8 M31.6,6.8h-2.8l1.5,0.2v0.4l0.8-0.2L31.6,6.8 M25.9,8.3l1.7-0.4V6.8
			h-1.7V8.3 M29.5,15.3h2.3v-1h-2.3V15.3 M28.8,18.9c0.5,0,1-0.1,1.5-0.1c0.3-0.6,0.5-1.4,0.8-2.2l0.8,0.2v-0.2h-2.3v0.4L28,17.1
			c0.4,0.2,1,0.6,1.6,1.1L28.8,18.9 M40.2,2.9c0.7,0.9,1.2,1.8,1.6,2.9l-2.5,0.6c-0.1-1.2-0.3-2.2-0.7-3L40.2,2.9 M27.7,1.2
			c-0.2,0-0.5,0.1-0.7,0.2c-0.2,0.2-0.3,0.5-0.3,0.8V4c-0.2-0.2-0.4-0.4-0.7-0.4l-2.7-0.4c0,0-0.1,0-0.1,0c-0.2,0-0.5,0.1-0.7,0.2
			c-0.2,0.2-0.3,0.5-0.3,0.8v10c0,2.5-0.2,4.7-0.6,6.8c-0.1,0.4,0.1,0.8,0.4,1l1,0.7c0.2,0.1,0.4,0.2,0.6,0.2c0.3,0,0.6-0.1,0.8-0.4
			c0.2-0.3,0.4-0.6,0.6-0.9l0.1,0.4c0.1,0.5,0.5,0.8,1,0.8c0.1,0,0.1,0,0.2,0c2.1-0.4,4.3-0.8,6.4-1.4l1,1c0.2,0.2,0.5,0.3,0.7,0.3
			c0.2,0,0.4-0.1,0.6-0.2c0.8-0.6,1.5-1.3,2.2-1.9c0.9,1.5,2,2.3,3.1,2.3c0.9,0,2.5-0.4,3-3c0.1-0.3,0-0.6-0.3-0.9
			c-0.1-0.1-0.1-0.2-0.1-0.4c0-0.1,0-0.4,0.3-1.3c0.1-0.5-0.1-1-0.6-1.2l-1-0.4c-0.1,0-0.2-0.1-0.3-0.1c0,0,0,0-0.1,0
			c0.8-1.5,1.5-3,2-4.6c0.1-0.5-0.1-1-0.6-1.2l-0.5-0.2c0.1,0,0.1-0.1,0.2-0.2l0.7-1c0.2-0.2,0.2-0.5,0.2-0.8c0-0.3-0.2-0.5-0.4-0.7
			l-0.4-0.2c0.1-0.1,0.3-0.2,0.3-0.4c0.1-0.3,0.2-0.6,0.1-0.8c-0.4-1.2-1-2.2-1.8-3.2c-0.2-0.3-0.5-0.4-0.8-0.4c-0.1,0-0.2,0-0.3,0
			l-0.7,0.2c-0.2-0.3-0.4-0.4-0.7-0.5l-2.7-0.3c0,0-0.1,0-0.1,0c-0.2,0-0.5,0.1-0.7,0.3c-0.1,0.1-0.2,0.2-0.2,0.3l-0.4-0.4
			c-0.2-0.2-0.4-0.3-0.7-0.3c-0.3,0-0.5,0.1-0.7,0.3l-0.8,0.7h-0.5c-0.1-0.4-0.4-0.6-0.8-0.7l-3.1-0.4C27.8,1.2,27.8,1.2,27.7,1.2
			L27.7,1.2z"/>
	</g>
	<g>
		<linearGradient id="SVGID_3_" gradientUnits="userSpaceOnUse" x1="53.4795" y1="21.9477" x2="53.4795" y2="2.0756">
			<stop  offset="0" style="stop-color:#E9DA81"/>
			<stop  offset="0.1414" style="stop-color:#E8D67D"/>
			<stop  offset="0.2714" style="stop-color:#E6CB73"/>
			<stop  offset="0.3965" style="stop-color:#E3B960"/>
			<stop  offset="0.4462" style="stop-color:#E1AF57"/>
			<stop  offset="0.4945" style="stop-color:#E5BD6B"/>
			<stop  offset="0.5898" style="stop-color:#ECD58D"/>
			<stop  offset="0.6874" style="stop-color:#F1E7A7"/>
			<stop  offset="0.7869" style="stop-color:#F5F5BA"/>
			<stop  offset="0.8895" style="stop-color:#F7FCC5"/>
			<stop  offset="1" style="stop-color:#F8FFC9"/>
		</linearGradient>
		<path class="st3" d="M46.2,2.2l3.1,0.4v2.2h0.6l1-1l1.8,1.7l-0.9,0.9H44l-0.4-1.5h2.6V2.2z M49.3,7.8l1-1l1.8,1.6l-0.9,0.8h-6.8
			l-0.4-1.5H49.3z M49.2,10.8l1-1l1.8,1.6l-0.9,0.9h-6.7l-0.4-1.5H49.2z M44.4,13l2.7,0.3v0.9h1.4l1.3-1.1l2.4,1.9l-0.7,0.8v5.4
			l-2.7,0.3v-0.8h-1.7v0.7l-2.7,0.3V13z M47.1,19.1h1.7v-3.3h-1.7V19.1z M59.2,11.2l1-0.9h-0.7c-1.3,0-2-0.6-2-1.8V4.7h-1.4v0.9
			c0,2.7-1.3,4.6-3.8,5.6l-1-1.2c1.2-1,1.8-2.3,1.8-4V2.2l2.9,0.3v0.6h1.2l1.3-1.1l2.6,2l-0.8,0.8v2.4c0,0.3,0.1,0.4,0.3,0.4
			c0.2,0,0.4-0.1,0.4-0.3l0.5-1.7L63,5.8c-0.1,0.5-0.1,0.9-0.1,1.2c0,0.6,0.2,1.1,0.5,1.3c-0.2,1.3-0.8,2-1.7,2h-0.7l2.4,1.9
			l-0.9,0.8c-0.6,1.7-1.5,3.3-2.7,4.6c1.1,0.6,2.3,1,3.6,1.3l-1.9,3c-1.6-0.6-2.9-1.3-4-2.2c-1.3,0.9-2.7,1.7-4.4,2.3l-1.1-1.3
			c1.4-0.9,2.7-1.8,3.7-2.8c-1.2-1.6-2-3.3-2.2-5.1h-0.8l-0.4-1.5H59.2z M55.3,12.7c0.4,1.3,1,2.4,1.9,3.3c0.8-1.1,1.4-2.2,1.8-3.3
			H55.3z"/>
		<path class="st1" d="M58.6,2.1l2.6,2l-0.8,0.8v2.4c0,0.3,0.1,0.4,0.3,0.4c0.2,0,0.4-0.1,0.4-0.3l0.5-1.7L63,5.8
			c-0.1,0.5-0.1,0.9-0.1,1.2c0,0.6,0.2,1.1,0.5,1.3c-0.2,1.3-0.8,2-1.7,2h-0.7l2.4,1.9l-0.9,0.8c-0.6,1.7-1.5,3.3-2.7,4.6
			c1.1,0.6,2.3,1,3.6,1.3l-1.9,3c-1.6-0.6-2.9-1.3-4-2.2c-1.3,0.9-2.7,1.7-4.4,2.3l-1.1-1.3c1.4-0.9,2.7-1.8,3.7-2.8
			c-1.2-1.6-2-3.3-2.2-5.1h-0.8l-0.4-1.5h7.1l1-0.9h-0.7c-1.3,0-2-0.6-2-1.8V4.7h-1.4v0.9c0,2.7-1.3,4.6-3.8,5.6l-1-1.2
			c1.2-1,1.8-2.3,1.8-4V2.2l2.9,0.3v0.6h1.2L58.6,2.1 M59,12.7h-3.7c0.4,1.3,1,2.4,1.9,3.3C58.1,14.9,58.7,13.8,59,12.7 M46.2,2.2
			l3.1,0.4v2.2h0.6l1-1l1.8,1.7l-0.9,0.9H44l-0.4-1.5h2.6V2.2 M50.3,6.8l1.8,1.6l-0.9,0.8h-6.8l-0.4-1.5h5.2L50.3,6.8 M50.3,9.8
			l1.8,1.6l-0.9,0.9h-6.7l-0.4-1.5h5.1L50.3,9.8 M44.4,13l2.7,0.3v0.9h1.4l1.3-1.1l2.4,1.9l-0.7,0.8v5.4l-2.7,0.3v-0.8h-1.7v0.7
			l-2.7,0.3V13 M47.1,19.1h1.7v-3.3h-1.7V19.1 M58.6,1.1c-0.2,0-0.5,0.1-0.6,0.2l-0.9,0.8c-0.1-0.3-0.4-0.5-0.8-0.6l-2.9-0.3
			c0,0-0.1,0-0.1,0c-0.2,0-0.5,0.1-0.7,0.3c-0.2,0.2-0.3,0.5-0.3,0.7v1.3L51.6,3c-0.2-0.2-0.4-0.3-0.7-0.3c-0.2,0-0.5,0.1-0.7,0.2
			V2.5c0-0.5-0.4-0.9-0.9-1l-3.1-0.4c0,0-0.1,0-0.1,0c-0.2,0-0.5,0.1-0.7,0.2c-0.2,0.2-0.3,0.5-0.3,0.8v1.6h-1.6
			c-0.3,0-0.6,0.1-0.8,0.4c-0.2,0.2-0.3,0.6-0.2,0.9L43,6.5c0.1,0.2,0.2,0.4,0.4,0.6c0,0-0.1,0.1-0.1,0.1C43.1,7.4,43,7.7,43.1,8
			l0.4,1.5c0,0.1,0.1,0.2,0.1,0.3c-0.2,0.1-0.3,0.2-0.4,0.3c-0.2,0.3-0.2,0.6-0.2,0.9l0.4,1.4c-0.1,0.2-0.2,0.4-0.2,0.6v8.7
			c0,0.3,0.1,0.6,0.3,0.7c0.2,0.2,0.4,0.3,0.7,0.3c0,0,0.1,0,0.1,0l2.7-0.3c0.3,0,0.5-0.2,0.7-0.4c0.1,0.1,0.1,0.2,0.2,0.3
			c0.2,0.2,0.4,0.2,0.7,0.2c0,0,0.1,0,0.1,0l2.7-0.3c0,0,0.1,0,0.1,0l0.4,0.5c0.2,0.2,0.5,0.4,0.8,0.4c0.1,0,0.2,0,0.4-0.1
			c1.5-0.6,2.8-1.2,4-2c1.1,0.8,2.3,1.4,3.7,1.9c0.1,0,0.2,0.1,0.4,0.1c0.3,0,0.7-0.2,0.8-0.5l1.9-3c0.2-0.3,0.2-0.6,0.1-0.9
			c-0.1-0.3-0.4-0.5-0.7-0.6c-0.8-0.2-1.5-0.4-2.2-0.7c0.8-1.1,1.5-2.3,1.9-3.6l0.7-0.6c0.2-0.2,0.4-0.5,0.4-0.8
			c0-0.3-0.1-0.6-0.4-0.8l-0.7-0.6c0.5-0.4,1-1.1,1.2-2.3c0.1-0.4-0.1-0.8-0.4-1c-0.1-0.1-0.1-0.2-0.1-0.5c0-0.2,0-0.5,0.1-1.1
			c0.1-0.5-0.3-1-0.8-1.1l-1-0.2c0.1-0.2,0.2-0.4,0.2-0.6c0-0.3-0.2-0.6-0.4-0.7l-2.6-2C59.1,1.1,58.9,1.1,58.6,1.1L58.6,1.1z
			 M55.6,10.2c0.4-0.5,0.8-1,1-1.6c0,0.6,0.2,1.2,0.5,1.6H55.6L55.6,10.2z M51.5,13.2C51.6,13.2,51.6,13.2,51.5,13.2
			c0.1,0.1,0.2,0.1,0.3,0.2L51.5,13.2L51.5,13.2z M52.5,13.9L52,13.5c0.1,0.1,0.3,0.1,0.5,0.2C52.4,13.8,52.4,13.9,52.5,13.9
			L52.5,13.9z M56.7,13.7h0.8c-0.1,0.2-0.2,0.4-0.4,0.7C57,14.1,56.9,13.9,56.7,13.7L56.7,13.7z M52.5,16.1l0.4-0.5
			c0,0,0-0.1,0.1-0.1c0.3,0.7,0.7,1.5,1.1,2.1c-0.5,0.4-1.1,0.8-1.7,1.3V16.1L52.5,16.1z"/>
	</g>
	<g>
		<linearGradient id="SVGID_4_" gradientUnits="userSpaceOnUse" x1="74.5103" y1="21.3324" x2="74.5103" y2="1.727">
			<stop  offset="0" style="stop-color:#E9DA81"/>
			<stop  offset="0.1414" style="stop-color:#E8D67D"/>
			<stop  offset="0.2714" style="stop-color:#E6CB73"/>
			<stop  offset="0.3965" style="stop-color:#E3B960"/>
			<stop  offset="0.4462" style="stop-color:#E1AF57"/>
			<stop  offset="0.4945" style="stop-color:#E5BD6B"/>
			<stop  offset="0.5898" style="stop-color:#ECD58D"/>
			<stop  offset="0.6874" style="stop-color:#F1E7A7"/>
			<stop  offset="0.7869" style="stop-color:#F5F5BA"/>
			<stop  offset="0.8895" style="stop-color:#F7FCC5"/>
			<stop  offset="1" style="stop-color:#F8FFC9"/>
		</linearGradient>
		<path class="st4" d="M68.8,2.9h10.8l1-1.2l3,2.3l-0.9,0.7v2.7l-0.1,0L84.4,9l-0.9,0.9h-3l2.3,1.7l-0.7,0.9v6.9l0.7-0.6l1.8,1.6
			l-0.9,0.9H64.9l-0.4-1.6h2V10l3.5,0.4v0.5h2.3c0.1-0.4,0.2-0.7,0.2-1.1h-7.6l-0.4-1.6h8.3C72.9,8,73,7.7,73,7.4h-4.2v0.4l-3,0.4
			V2.1l3,0.3V2.9z M70.4,4.5h-1.6v1.4h1.6V4.5z M70,13.1h8.6v-0.7H70V13.1z M70,15.4h8.6v-0.8H70V15.4z M70,17.6h8.6v-0.7H70V17.6z
			 M70,19.8h8.6V19H70V19.8z M75.1,4.5h-1.7v1.4h1.7V4.5z M75.6,10.9h3l1.1-1.1h-3.8C75.8,10.2,75.7,10.6,75.6,10.9z M76.4,7.4
			c-0.1,0.3-0.1,0.6-0.2,0.9h5l0.8-0.7l-2.3,0.4V7.4H76.4z M79.7,5.8V4.5H78v1.4H79.7z"/>
		<path class="st1" d="M80.7,1.7l3,2.3l-0.9,0.7v2.7l-0.1,0L84.4,9l-0.9,0.9h-3l2.3,1.7l-0.7,0.9v6.9l0.7-0.6l1.8,1.6l-0.9,0.9H64.9
			l-0.4-1.6h2V10l3.5,0.4v0.5h2.3c0.1-0.4,0.2-0.7,0.2-1.1h-7.6l-0.4-1.6h8.3C72.9,8,73,7.7,73,7.4h-4.2v0.4l-3,0.4V2.1l3,0.3v0.5
			h10.8L80.7,1.7 M78,5.8h1.6V4.5H78V5.8 M73.4,5.8h1.7V4.5h-1.7V5.8 M68.8,5.8h1.6V4.5h-1.6V5.8 M76.2,8.3h5l0.8-0.7l-2.3,0.4V7.4
			h-3.3C76.3,7.7,76.3,8,76.2,8.3 M79.6,9.9h-3.8c-0.1,0.4-0.2,0.7-0.3,1.1h3L79.6,9.9 M70,13.1h8.6v-0.7H70V13.1 M70,15.4h8.6v-0.8
			H70V15.4 M70,17.6h8.6v-0.7H70V17.6 M70,19.8h8.6V19H70V19.8 M80.7,0.7c-0.3,0-0.6,0.1-0.8,0.3l-0.7,0.8h-9.5
			c-0.2-0.3-0.4-0.5-0.8-0.5l-3-0.3c0,0-0.1,0-0.1,0c-0.2,0-0.5,0.1-0.7,0.3c-0.2,0.2-0.3,0.5-0.3,0.7v5.2h-0.3
			c-0.3,0-0.6,0.1-0.8,0.4c-0.2,0.2-0.3,0.6-0.2,0.9l0.4,1.6c0.1,0.5,0.5,0.8,1,0.8h0.6v7.9h-1c-0.3,0-0.6,0.1-0.8,0.4
			c-0.2,0.2-0.3,0.6-0.2,0.9l0.4,1.6c0.1,0.5,0.5,0.8,1,0.8h18.7c0.3,0,0.5-0.1,0.7-0.3l0.9-0.9c0.2-0.2,0.3-0.5,0.3-0.7
			c0-0.3-0.1-0.5-0.3-0.7l-1.8-1.6c-0.1-0.1-0.2-0.2-0.3-0.2v-5l0.5-0.6c0.2-0.2,0.3-0.5,0.2-0.8c0-0.2-0.1-0.5-0.3-0.6h0
			c0.3,0,0.5-0.1,0.7-0.3l0.9-0.9c0.2-0.2,0.3-0.5,0.3-0.7c0-0.3-0.1-0.5-0.3-0.7l-1.2-1.1V5.2l0.5-0.4c0.2-0.2,0.4-0.5,0.4-0.8
			c0-0.3-0.1-0.6-0.4-0.8l-3-2.3C81.1,0.8,80.9,0.7,80.7,0.7L80.7,0.7z"/>
	</g>
</g>
</svg>
