<?xml version="1.0" encoding="utf-8"?>
<!-- Generator: Adobe Illustrator 22.1.0, SVG Export Plug-In . SVG Version: 6.00 Build 0)  -->
<svg version="1.1" id="圖層_1" xmlns="http://www.w3.org/2000/svg" xmlns:xlink="http://www.w3.org/1999/xlink" x="0px" y="0px"
	 viewBox="0 0 98 540" style="enable-background:new 0 0 98 540;" xml:space="preserve">
<style type="text/css">
	.st0{opacity:0.7;}
	.st1{fill:url(#SVGID_1_);}
</style>
<g>
	<path class="st0" d="M98,539l-18-22c0,0-54.2-21.6-67-28c-8-4-11-8-11-20s0-277,0-277v157c0,0,0-265,0-277s3-16,11-20
		c12.8-6.4,67-28,67-28L98,2V539z"/>
	<linearGradient id="SVGID_1_" gradientUnits="userSpaceOnUse" x1="1.75" y1="270.5002" x2="98" y2="270.5002">
		<stop  offset="0" style="stop-color:#DFBFA1"/>
		<stop  offset="1.570125e-02" style="stop-color:#E6CBB3"/>
		<stop  offset="3.570745e-02" style="stop-color:#ECD6C2"/>
		<stop  offset="5.903541e-02" style="stop-color:#EFDCCB"/>
		<stop  offset="9.330930e-02" style="stop-color:#F0DECE"/>
		<stop  offset="0.1343" style="stop-color:#E6D2C0"/>
		<stop  offset="0.2554" style="stop-color:#CBB29B"/>
		<stop  offset="0.3823" style="stop-color:#B4977C"/>
		<stop  offset="0.5147" style="stop-color:#A38364"/>
		<stop  offset="0.655" style="stop-color:#977453"/>
		<stop  offset="0.8085" style="stop-color:#8F6C49"/>
		<stop  offset="1" style="stop-color:#8D6946"/>
	</linearGradient>
	<path class="st1" d="M98,535.8L81.8,516l-0.3-0.1c-0.5-0.2-54.3-21.7-66.9-28c-7.3-3.6-10.3-7.1-10.3-18.9V72
		c0-11.8,3-15.2,10.3-18.9c12.6-6.3,66.4-27.7,66.9-28l0.3-0.1L98,5.2V1.2L80.2,23c-4.4,1.7-54.6,21.8-66.8,27.9
		C5.5,54.8,1.8,59,1.8,72v397c0,13,3.8,17.2,11.7,21.1c12.2,6.1,62.4,26.2,66.8,27.9L98,539.8V535.8z"/>
</g>
</svg>
