<?xml version="1.0" encoding="utf-8"?>
<!-- Generator: Adobe Illustrator 22.1.0, SVG Export Plug-In . SVG Version: 6.00 Build 0)  -->
<svg version="1.1" id="圖層_1" xmlns="http://www.w3.org/2000/svg" xmlns:xlink="http://www.w3.org/1999/xlink" x="0px" y="0px"
	 viewBox="0 0 90 90" style="enable-background:new 0 0 90 90;" xml:space="preserve">
<style type="text/css">
	.st0{opacity:0.5;enable-background:new    ;}
	.st1{fill:url(#SVGID_1_);}
	.st2{fill:url(#SVGID_2_);}
	.st3{fill:url(#SVGID_3_);}
</style>
<g>
	<circle class="st0" cx="45" cy="45" r="42.9"/>
	<g>
		
			<linearGradient id="SVGID_1_" gradientUnits="userSpaceOnUse" x1="45" y1="-807.6" x2="45" y2="-718.4" gradientTransform="matrix(1 0 0 -1 0 -718)">
			<stop  offset="0.1325" style="stop-color:#ED9C8D"/>
			<stop  offset="0.5973" style="stop-color:#E5D5B7"/>
			<stop  offset="1" style="stop-color:#E5E1CE"/>
		</linearGradient>
		<path class="st1" d="M45,0.4C20.3,0.4,0.4,20.3,0.4,45S20.3,89.6,45,89.6S89.6,69.7,89.6,45S69.7,0.4,45,0.4z M45,84.5
			C23.2,84.5,5.5,66.8,5.5,45S23.2,5.5,45,5.5S84.5,23.2,84.5,45S66.8,84.5,45,84.5z"/>
	</g>
	<g>
		<g>
			<g>
				
					<linearGradient id="SVGID_2_" gradientUnits="userSpaceOnUse" x1="40.35" y1="-793.6594" x2="40.35" y2="-735.8667" gradientTransform="matrix(1 0 0 -1 0 -718)">
					<stop  offset="0.1325" style="stop-color:#ED9C8D"/>
					<stop  offset="0.5973" style="stop-color:#E5D5B7"/>
					<stop  offset="1" style="stop-color:#E5E1CE"/>
				</linearGradient>
				<path class="st2" d="M57.2,64.2l-15.7-0.1V29.4c0-1-0.7-2-1.8-2.3l-12.8-4.4l30.3,0.1V35H62V22.8c0-2.7-2.2-5-4.8-5H23.5
					c-2.7,0-4.8,2.2-4.8,5V64c0,2.5,1.8,4.4,4.2,4.8l13.9,6.5c2.1,1,4.7-0.2,4.7-2.2v-4.2h15.7c2.7,0,4.8-2.2,4.8-5V52.2h-4.8
					C57.2,52.2,57.2,64.2,57.2,64.2z"/>
			</g>
			<g>
				
					<linearGradient id="SVGID_3_" gradientUnits="userSpaceOnUse" x1="66.369" y1="-793.6223" x2="66.369" y2="-735.8295" gradientTransform="matrix(1 0 0 -1 0 -718)">
					<stop  offset="0.1325" style="stop-color:#ED9C8D"/>
					<stop  offset="0.5973" style="stop-color:#E5D5B7"/>
					<stop  offset="1" style="stop-color:#E5E1CE"/>
				</linearGradient>
				<path class="st3" d="M77.5,40.9L69,32.3c-1-1-2.5-1-3.4,0c-1,1-1,2.5,0,3.4l4.4,4.4H57c-1.3,0-2.5,1.1-2.5,2.5
					c0,1.3,1.1,2.5,2.5,2.5h12.9l-4.4,4.4c-1,1-1,2.5,0,3.4c0.5,0.5,1.1,0.7,1.7,0.7s1.2-0.2,1.7-0.7l8.5-8.5
					C78.5,43.4,78.5,41.8,77.5,40.9z"/>
			</g>
		</g>
	</g>
</g>
</svg>
