<?xml version="1.0" encoding="utf-8"?>
<!-- Generator: Adobe Illustrator 22.1.0, SVG Export Plug-In . SVG Version: 6.00 Build 0)  -->
<svg version="1.1" id="圖層_1" xmlns="http://www.w3.org/2000/svg" xmlns:xlink="http://www.w3.org/1999/xlink" x="0px" y="0px"
	 viewBox="0 0 86 20" style="enable-background:new 0 0 86 20;" xml:space="preserve">
<style type="text/css">
	.st0{fill:#FFFFFF;}
	.st1{fill:#C8C9CA;}
	.st2{fill:#040000;}
	.st3{fill:#BF2227;}
	.st4{fill-rule:evenodd;clip-rule:evenodd;fill:#BF2227;}
</style>
<g>
	<path class="st0" d="M19.6,0h11.5c0.6,0,1.2,0.5,1.2,1.2v17.6c0,0.7-0.5,1.2-1.2,1.2H19.6c-0.6,0-1.2-0.5-1.2-1.2V1.2
		C18.4,0.5,18.9,0,19.6,0L19.6,0z"/>
	<path class="st1" d="M31.1,0.3c0.5,0,0.9,0.4,0.9,1v17.6c0,0.5-0.4,1-0.9,1H19.6c-0.5,0-0.9-0.4-0.9-1V1.2c0-0.5,0.4-1,0.9-1H31.1
		 M31.1,0H19.6c-0.6,0-1.2,0.5-1.2,1.2v17.6c0,0.7,0.5,1.2,1.2,1.2h11.5c0.6,0,1.2-0.5,1.2-1.2V1.2C32.2,0.5,31.7,0,31.1,0L31.1,0z"
		/>
</g>
<g>
	<path class="st2" d="M25.5,6.9v0.3c0.1,0.5,0.3,1.3,1,1.6v0.2h-1.2h-1.2V8.7c0.7-0.3,0.9-1,1-1.6l0-0.3c-0.3,0.6-0.9,1-1.7,1
		c-1,0-1.8-0.8-1.8-1.7c0,0-0.4-2.2,3.7-5.2c4,3,3.7,5.2,3.7,5.2c0,0.9-0.8,1.7-1.8,1.7C26.4,7.9,25.8,7.5,25.5,6.9z"/>
</g>
<g>
	<path d="M27.6,15.7v0.7c0,0.1,0,0.1-0.1,0.2c0,0-0.1,0.1-0.2,0.1h-0.5v1.6h-1.1v-1.6h-2.8c-0.1,0-0.2,0-0.2-0.1
		c-0.1,0-0.1-0.1-0.1-0.2l-0.1-0.6l3.1-4.2h1.2v4.1H27.6z M25.7,15.7v-2c0-0.1,0-0.2,0-0.3c0-0.1,0-0.2,0-0.4l-1.9,2.7H25.7z"/>
</g>
<g>
	<path class="st0" d="M1.9,0h11.5c0.6,0,1.2,0.5,1.2,1.2v17.6c0,0.7-0.5,1.2-1.2,1.2H1.9c-0.6,0-1.2-0.5-1.2-1.2V1.2
		C0.7,0.5,1.2,0,1.9,0L1.9,0z"/>
	<path class="st1" d="M13.4,0.3c0.5,0,0.9,0.4,0.9,1v17.6c0,0.5-0.4,1-0.9,1H1.9c-0.5,0-0.9-0.4-0.9-1V1.2c0-0.5,0.4-1,0.9-1H13.4
		 M13.4,0H1.9C1.2,0,0.7,0.5,0.7,1.2v17.6c0,0.7,0.5,1.2,1.2,1.2h11.5c0.6,0,1.2-0.5,1.2-1.2V1.2C14.5,0.5,14,0,13.4,0L13.4,0z"/>
</g>
<g>
	<path class="st3" d="M5.2,13.4c0-0.3,0.1-0.6,0.3-0.9C5.6,12.3,5.8,12.1,6,12s0.4-0.3,0.7-0.4c0.3-0.1,0.5-0.1,0.8-0.1
		c0.3,0,0.6,0,0.9,0.1C8.6,11.7,8.8,11.8,9,12c0.2,0.2,0.3,0.3,0.4,0.5c0.1,0.2,0.1,0.4,0.1,0.7c0,0.2,0,0.4-0.1,0.6
		c0,0.2-0.1,0.3-0.2,0.4c-0.1,0.1-0.2,0.2-0.3,0.3c-0.1,0.1-0.3,0.2-0.4,0.2c0.8,0.3,1.2,0.8,1.2,1.5c0,0.3-0.1,0.6-0.2,0.9
		c-0.1,0.3-0.3,0.5-0.5,0.7c-0.2,0.2-0.5,0.3-0.7,0.4c-0.3,0.1-0.6,0.1-0.9,0.1c-0.3,0-0.6,0-0.9-0.1C6.3,18.1,6,18,5.9,17.9
		c-0.2-0.1-0.4-0.3-0.5-0.6S5.1,16.8,5,16.5l0.6-0.2c0.1-0.1,0.3-0.1,0.4-0.1c0.1,0,0.2,0.1,0.3,0.2c0.1,0.1,0.1,0.2,0.2,0.3
		C6.5,16.9,6.6,17,6.7,17c0.1,0.1,0.2,0.1,0.3,0.2s0.2,0.1,0.4,0.1c0.2,0,0.3,0,0.5-0.1C8,17.1,8.1,17,8.2,16.9
		c0.1-0.1,0.2-0.2,0.2-0.3c0-0.1,0.1-0.2,0.1-0.4c0-0.2,0-0.3,0-0.4s-0.1-0.2-0.2-0.3c-0.1-0.1-0.2-0.2-0.4-0.2S7.3,15.3,7,15.3
		v-0.9c0.3,0,0.5,0,0.7-0.1c0.2,0,0.3-0.1,0.4-0.2s0.2-0.2,0.2-0.3c0-0.1,0.1-0.2,0.1-0.4c0-0.3-0.1-0.5-0.2-0.7
		c-0.2-0.2-0.4-0.2-0.6-0.2c-0.1,0-0.2,0-0.3,0.1c-0.1,0-0.2,0.1-0.3,0.1s-0.2,0.1-0.2,0.2c-0.1,0.1-0.1,0.2-0.1,0.3
		c-0.1,0.2-0.1,0.3-0.2,0.3s-0.2,0.1-0.4,0L5.2,13.4z"/>
</g>
<g>
	<path class="st0" d="M37.2,0h11.5c0.6,0,1.2,0.5,1.2,1.2v17.6c0,0.7-0.5,1.2-1.2,1.2H37.2c-0.6,0-1.2-0.5-1.2-1.2V1.2
		C36.1,0.5,36.6,0,37.2,0L37.2,0z"/>
	<path class="st1" d="M48.7,0.3c0.5,0,0.9,0.4,0.9,1v17.6c0,0.5-0.4,1-0.9,1H37.2c-0.5,0-0.9-0.4-0.9-1V1.2c0-0.5,0.4-1,0.9-1H48.7
		 M48.7,0H37.2c-0.6,0-1.2,0.5-1.2,1.2v17.6c0,0.7,0.5,1.2,1.2,1.2h11.5c0.6,0,1.2-0.5,1.2-1.2V1.2C49.9,0.5,49.4,0,48.7,0L48.7,0z"
		/>
</g>
<g>
	<path class="st3" d="M42.1,13.9c0.1,0,0.3,0,0.4-0.1c0.1,0,0.3,0,0.4,0c0.4,0,0.7,0.1,0.9,0.2c0.3,0.1,0.5,0.3,0.7,0.4
		c0.2,0.2,0.3,0.4,0.4,0.7c0.1,0.2,0.1,0.5,0.1,0.8c0,0.4-0.1,0.7-0.2,1c-0.1,0.3-0.3,0.5-0.5,0.8c-0.2,0.2-0.5,0.4-0.8,0.5
		s-0.6,0.2-1,0.2c-0.2,0-0.4,0-0.6-0.1s-0.4-0.1-0.5-0.2c-0.2-0.1-0.3-0.2-0.5-0.3c-0.1-0.1-0.3-0.2-0.4-0.3l0.4-0.5
		c0.1-0.1,0.2-0.2,0.3-0.2c0.1,0,0.2,0,0.2,0.1c0.1,0,0.2,0.1,0.3,0.2s0.2,0.1,0.4,0.2c0.1,0,0.3,0.1,0.5,0.1c0.2,0,0.4,0,0.5-0.1
		c0.1-0.1,0.3-0.2,0.4-0.3c0.1-0.1,0.2-0.3,0.2-0.4c0-0.2,0.1-0.3,0.1-0.5c0-0.3-0.1-0.6-0.3-0.8c-0.2-0.2-0.5-0.3-0.9-0.3
		c-0.3,0-0.6,0.1-0.9,0.2l-0.8-0.2l0.6-3.3h3.4v0.5c0,0.1,0,0.2,0,0.2c0,0.1-0.1,0.1-0.1,0.2s-0.1,0.1-0.2,0.1c-0.1,0-0.2,0-0.3,0
		h-1.7L42.1,13.9z"/>
</g>
<g>
	<path class="st0" d="M54.9,0h11.5c0.6,0,1.2,0.5,1.2,1.2v17.6c0,0.7-0.5,1.2-1.2,1.2H54.9c-0.6,0-1.2-0.5-1.2-1.2V1.2
		C53.8,0.5,54.3,0,54.9,0L54.9,0z"/>
	<path class="st1" d="M66.4,0.3c0.5,0,0.9,0.4,0.9,1v17.6c0,0.5-0.4,1-0.9,1H54.9c-0.5,0-0.9-0.4-0.9-1V1.2c0-0.5,0.4-1,0.9-1H66.4
		 M66.4,0H54.9c-0.6,0-1.2,0.5-1.2,1.2v17.6c0,0.7,0.5,1.2,1.2,1.2h11.5c0.6,0,1.2-0.5,1.2-1.2V1.2C67.6,0.5,67.1,0,66.4,0L66.4,0z"
		/>
</g>
<g>
	<path d="M60.3,13.9l-0.2,0.2c0.1-0.1,0.2-0.1,0.4-0.1c0.1,0,0.3,0,0.4,0c0.2,0,0.5,0,0.7,0.1c0.2,0.1,0.4,0.2,0.6,0.4
		c0.2,0.2,0.3,0.4,0.4,0.6c0.1,0.3,0.2,0.5,0.2,0.9c0,0.3-0.1,0.6-0.2,0.9c-0.1,0.3-0.3,0.5-0.5,0.7c-0.2,0.2-0.5,0.4-0.8,0.5
		c-0.3,0.1-0.6,0.2-1,0.2c-0.4,0-0.7-0.1-1-0.2c-0.3-0.1-0.5-0.3-0.7-0.5c-0.2-0.2-0.4-0.5-0.5-0.8c-0.1-0.3-0.2-0.6-0.2-1
		c0-0.3,0.1-0.7,0.2-1c0.1-0.3,0.3-0.7,0.6-1l1.6-2.1c0.1-0.1,0.2-0.1,0.3-0.2c0.1-0.1,0.3-0.1,0.4-0.1h1.1L60.3,13.9z M60.5,17.3
		c0.2,0,0.3,0,0.5-0.1c0.1-0.1,0.3-0.1,0.4-0.2c0.1-0.1,0.2-0.2,0.2-0.4s0.1-0.3,0.1-0.5c0-0.2,0-0.3-0.1-0.5
		c-0.1-0.1-0.1-0.3-0.2-0.4S61.1,15.1,61,15C60.8,15,60.7,15,60.5,15c-0.2,0-0.3,0-0.4,0.1c-0.1,0.1-0.3,0.1-0.3,0.2
		c-0.1,0.1-0.2,0.2-0.2,0.4c-0.1,0.1-0.1,0.3-0.1,0.5c0,0.2,0,0.3,0.1,0.5c0,0.1,0.1,0.3,0.2,0.4c0.1,0.1,0.2,0.2,0.3,0.2
		C60.1,17.3,60.3,17.3,60.5,17.3z"/>
</g>
<g>
	<path class="st2" d="M60.8,6.5c0,0.6,0.1,1.8,1.1,2.2v0.2h-1.3h-1.3V8.7c1-0.4,1.1-1.6,1.1-2.2C60,7.2,59,7.7,58.3,7.7
		c-1,0-1.7-0.9-1.7-2c0-1.1,0.8-2,1.7-2c0.3,0,0.6,0.1,0.9,0.2c-0.3-0.4-0.5-0.8-0.5-1.3c0-1,0.9-1.7,2-1.7c1.1,0,2,0.8,2,1.7
		c0,0.4-0.2,0.9-0.5,1.3c0.3-0.1,0.6-0.2,0.9-0.2c1,0,1.7,0.9,1.7,2c0,1.1-0.8,2-1.7,2C62.4,7.7,61.3,7.2,60.8,6.5z"/>
</g>
<g>
	<path class="st4" d="M7.6,2.9c0-1.1,0.9-2,2-2c1.1,0,2,0.9,2,2c0,0,0.4,2.6-4,6c-4.4-3.4-4-6-4-6c0-1.1,0.9-2,2-2
		C6.7,0.9,7.6,1.8,7.6,2.9z"/>
</g>
<g>
	<polygon class="st4" points="42.8,0.9 39.3,4.9 42.8,8.9 46.3,4.9 	"/>
</g>
<g>
	<path class="st0" d="M72.6,0h11.5c0.6,0,1.2,0.5,1.2,1.2v17.6c0,0.7-0.5,1.2-1.2,1.2H72.6c-0.6,0-1.2-0.5-1.2-1.2V1.2
		C71.5,0.5,72,0,72.6,0L72.6,0z"/>
	<path class="st1" d="M84.1,0.3c0.5,0,0.9,0.4,0.9,1v17.6c0,0.5-0.4,1-0.9,1H72.6c-0.5,0-0.9-0.4-0.9-1V1.2c0-0.5,0.4-1,0.9-1H84.1
		 M84.1,0H72.6c-0.6,0-1.2,0.5-1.2,1.2v17.6c0,0.7,0.5,1.2,1.2,1.2h11.5c0.6,0,1.2-0.5,1.2-1.2V1.2C85.3,0.5,84.8,0,84.1,0L84.1,0z"
		/>
</g>
<g>
	<path class="st3" d="M80.6,11.5v0.5c0,0.2,0,0.3-0.1,0.4c0,0.1-0.1,0.2-0.1,0.2L78,17.8c-0.1,0.1-0.1,0.2-0.2,0.3
		c-0.1,0.1-0.2,0.1-0.4,0.1h-0.9l2.5-5c0.1-0.1,0.1-0.2,0.2-0.3c0.1-0.1,0.1-0.2,0.2-0.3h-3.1c-0.1,0-0.1,0-0.2-0.1
		c-0.1-0.1-0.1-0.1-0.1-0.2v-0.8H80.6z"/>
</g>
<g>
	<polygon class="st4" points="78.2,0.9 74.7,4.9 78.2,8.9 81.7,4.9 	"/>
</g>
</svg>
